^C:\USERS\USER\DESKTOP\תרגול בית 5\קבצים לתרגיל\MAIN.CPP|C:\USERS\USER\DESKTOP\תרגול בית 5\קבצים לתרגיל\MENU.CPP|C:\USERS\USER\DESKTOP\תרגול בית 5\קבצים לתרגיל\POINT.CPP|C:\USERS\USER\DESKTOP\תרגול בית 5\קבצים לתרגיל\RECTANGLE.CPP|C:\USERS\USER\DESKTOP\תרגול בית 5\קבצים לתרגיל\SHAPE.CPP|C:\USERS\USER\DESKTOP\תרגול בית 5\קבצים לתרגיל\TRIANGLE.CPP
C:\USERS\USER\SOURCE\REPOS\PAINTER\PAINTER\DEBUG\VC141.PDB
C:\USERS\USER\SOURCE\REPOS\PAINTER\PAINTER\DEBUG\VC141.IDB
C:\USERS\USER\SOURCE\REPOS\PAINTER\PAINTER\DEBUG\MENU.OBJ
^C:\USERS\USER\DESKTOP\תרגול בית 5\קבצים לתרגיל\MAIN.CPP|C:\USERS\USER\DESKTOP\תרגול בית 5\קבצים לתרגיל\POINT.CPP|C:\USERS\USER\DESKTOP\תרגול בית 5\קבצים לתרגיל\RECTANGLE.CPP|C:\USERS\USER\DESKTOP\תרגול בית 5\קבצים לתרגיל\SHAPE.CPP|C:\USERS\USER\DESKTOP\תרגול בית 5\קבצים לתרגיל\TRIANGLE.CPP
C:\USERS\USER\SOURCE\REPOS\PAINTER\PAINTER\DEBUG\VC141.PDB
C:\USERS\USER\SOURCE\REPOS\PAINTER\PAINTER\DEBUG\VC141.IDB
C:\USERS\USER\SOURCE\REPOS\PAINTER\PAINTER\DEBUG\MAIN.OBJ
^C:\USERS\USER\DESKTOP\תרגול בית 5\קבצים לתרגיל\POINT.CPP|C:\USERS\USER\DESKTOP\תרגול בית 5\קבצים לתרגיל\RECTANGLE.CPP|C:\USERS\USER\DESKTOP\תרגול בית 5\קבצים לתרגיל\SHAPE.CPP|C:\USERS\USER\DESKTOP\תרגול בית 5\קבצים לתרגיל\TRIANGLE.CPP
C:\USERS\USER\SOURCE\REPOS\PAINTER\PAINTER\DEBUG\VC141.PDB
C:\USERS\USER\SOURCE\REPOS\PAINTER\PAINTER\DEBUG\VC141.IDB
C:\USERS\USER\SOURCE\REPOS\PAINTER\PAINTER\DEBUG\POINT.OBJ
^C:\USERS\USER\DESKTOP\תרגול בית 5\קבצים לתרגיל\MAIN.CPP|C:\USERS\USER\DESKTOP\תרגול בית 5\קבצים לתרגיל\MENU.CPP|C:\USERS\USER\DESKTOP\תרגול בית 5\קבצים לתרגיל\RECTANGLE.CPP|C:\USERS\USER\DESKTOP\תרגול בית 5\קבצים לתרגיל\SHAPE.CPP|C:\USERS\USER\DESKTOP\תרגול בית 5\קבצים לתרגיל\TRIANGLE.CPP
C:\USERS\USER\SOURCE\REPOS\PAINTER\PAINTER\DEBUG\VC141.PDB
C:\USERS\USER\SOURCE\REPOS\PAINTER\PAINTER\DEBUG\VC141.IDB
C:\USERS\USER\SOURCE\REPOS\PAINTER\PAINTER\DEBUG\RECTANGLE.OBJ
C:\USERS\USER\SOURCE\REPOS\PAINTER\PAINTER\DEBUG\MENU.OBJ
C:\USERS\USER\SOURCE\REPOS\PAINTER\PAINTER\DEBUG\MAIN.OBJ
^C:\USERS\USER\DESKTOP\תרגול בית 5\קבצים לתרגיל\MAIN.CPP|C:\USERS\USER\DESKTOP\תרגול בית 5\קבצים לתרגיל\MENU.CPP|C:\USERS\USER\DESKTOP\תרגול בית 5\קבצים לתרגיל\SHAPE.CPP|C:\USERS\USER\DESKTOP\תרגול בית 5\קבצים לתרגיל\TRIANGLE.CPP
C:\USERS\USER\SOURCE\REPOS\PAINTER\PAINTER\DEBUG\VC141.PDB
C:\USERS\USER\SOURCE\REPOS\PAINTER\PAINTER\DEBUG\VC141.IDB
C:\USERS\USER\SOURCE\REPOS\PAINTER\PAINTER\DEBUG\TRIANGLE.OBJ
C:\USERS\USER\SOURCE\REPOS\PAINTER\PAINTER\DEBUG\SHAPE.OBJ
C:\USERS\USER\SOURCE\REPOS\PAINTER\PAINTER\DEBUG\MENU.OBJ
C:\USERS\USER\SOURCE\REPOS\PAINTER\PAINTER\DEBUG\MAIN.OBJ
^C:\USERS\USER\DESKTOP\תרגול בית 5\קבצים לתרגיל\CIRCLE.CPP|C:\USERS\USER\DESKTOP\תרגול בית 5\קבצים לתרגיל\SHAPE.CPP
C:\USERS\USER\SOURCE\REPOS\PAINTER\PAINTER\DEBUG\VC141.PDB
C:\USERS\USER\SOURCE\REPOS\PAINTER\PAINTER\DEBUG\VC141.IDB
C:\USERS\USER\SOURCE\REPOS\PAINTER\PAINTER\DEBUG\SHAPE.OBJ
C:\USERS\USER\SOURCE\REPOS\PAINTER\PAINTER\DEBUG\CIRCLE.OBJ
^C:\USERS\USER\DESKTOP\תרגול בית 5\קבצים לתרגיל\RECTANGLE.CPP|C:\USERS\USER\DESKTOP\תרגול בית 5\קבצים לתרגיל\SHAPE.CPP
C:\USERS\USER\SOURCE\REPOS\PAINTER\PAINTER\DEBUG\VC141.PDB
C:\USERS\USER\SOURCE\REPOS\PAINTER\PAINTER\DEBUG\VC141.IDB
C:\USERS\USER\SOURCE\REPOS\PAINTER\PAINTER\DEBUG\RECTANGLE.OBJ
^C:\USERS\USER\DESKTOP\תרגול בית 5\קבצים לתרגיל\MENU.CPP|C:\USERS\USER\DESKTOP\תרגול בית 5\קבצים לתרגיל\RECTANGLE.CPP|C:\USERS\USER\DESKTOP\תרגול בית 5\קבצים לתרגיל\SHAPE.CPP
C:\USERS\USER\SOURCE\REPOS\PAINTER\PAINTER\DEBUG\VC141.PDB
C:\USERS\USER\SOURCE\REPOS\PAINTER\PAINTER\DEBUG\VC141.IDB
C:\USERS\USER\SOURCE\REPOS\PAINTER\PAINTER\DEBUG\SHAPE.OBJ
C:\USERS\USER\SOURCE\REPOS\PAINTER\PAINTER\DEBUG\RECTANGLE.OBJ
C:\USERS\USER\SOURCE\REPOS\PAINTER\PAINTER\DEBUG\MENU.OBJ
^C:\USERS\USER\DESKTOP\תרגול בית 5\קבצים לתרגיל\CIRCLE.CPP|C:\USERS\USER\DESKTOP\תרגול בית 5\קבצים לתרגיל\RECTANGLE.CPP|C:\USERS\USER\DESKTOP\תרגול בית 5\קבצים לתרגיל\TRIANGLE.CPP
C:\USERS\USER\SOURCE\REPOS\PAINTER\PAINTER\DEBUG\VC141.PDB
C:\USERS\USER\SOURCE\REPOS\PAINTER\PAINTER\DEBUG\VC141.IDB
C:\USERS\USER\SOURCE\REPOS\PAINTER\PAINTER\DEBUG\TRIANGLE.OBJ
C:\USERS\USER\SOURCE\REPOS\PAINTER\PAINTER\DEBUG\RECTANGLE.OBJ
C:\USERS\USER\SOURCE\REPOS\PAINTER\PAINTER\DEBUG\CIRCLE.OBJ
^C:\USERS\USER\DESKTOP\תרגול בית 5\קבצים לתרגיל\MAIN.CPP|C:\USERS\USER\DESKTOP\תרגול בית 5\קבצים לתרגיל\MENU.CPP|C:\USERS\USER\DESKTOP\תרגול בית 5\קבצים לתרגיל\RECTANGLE.CPP
C:\USERS\USER\SOURCE\REPOS\PAINTER\PAINTER\DEBUG\VC141.PDB
C:\USERS\USER\SOURCE\REPOS\PAINTER\PAINTER\DEBUG\VC141.IDB
C:\USERS\USER\SOURCE\REPOS\PAINTER\PAINTER\DEBUG\RECTANGLE.OBJ
C:\USERS\USER\SOURCE\REPOS\PAINTER\PAINTER\DEBUG\MAIN.OBJ
^C:\USERS\USER\DESKTOP\תרגול בית 5\קבצים לתרגיל\MAIN.CPP|C:\USERS\USER\DESKTOP\תרגול בית 5\קבצים לתרגיל\MENU.CPP|C:\USERS\USER\DESKTOP\תרגול בית 5\קבצים לתרגיל\TRIANGLE.CPP
C:\USERS\USER\SOURCE\REPOS\PAINTER\PAINTER\DEBUG\VC141.PDB
C:\USERS\USER\SOURCE\REPOS\PAINTER\PAINTER\DEBUG\VC141.IDB
C:\USERS\USER\SOURCE\REPOS\PAINTER\PAINTER\DEBUG\TRIANGLE.OBJ
C:\USERS\USER\SOURCE\REPOS\PAINTER\PAINTER\DEBUG\MAIN.OBJ
^C:\USERS\USER\DESKTOP\תרגול בית 5\קבצים לתרגיל\ARROW.CPP|C:\USERS\USER\DESKTOP\תרגול בית 5\קבצים לתרגיל\MENU.CPP
C:\USERS\USER\SOURCE\REPOS\PAINTER\PAINTER\DEBUG\VC141.PDB
C:\USERS\USER\SOURCE\REPOS\PAINTER\PAINTER\DEBUG\VC141.IDB
C:\USERS\USER\SOURCE\REPOS\PAINTER\PAINTER\DEBUG\MENU.OBJ
C:\USERS\USER\SOURCE\REPOS\PAINTER\PAINTER\DEBUG\ARROW.OBJ
^C:\USERS\USER\DESKTOP\תרגול בית 5\קבצים לתרגיל\MAIN.CPP|C:\USERS\USER\DESKTOP\תרגול בית 5\קבצים לתרגיל\MENU.CPP|C:\USERS\USER\DESKTOP\תרגול בית 5\קבצים לתרגיל\SHAPE.CPP
C:\USERS\USER\SOURCE\REPOS\PAINTER\PAINTER\DEBUG\VC141.PDB
C:\USERS\USER\SOURCE\REPOS\PAINTER\PAINTER\DEBUG\VC141.IDB
C:\USERS\USER\SOURCE\REPOS\PAINTER\PAINTER\DEBUG\MENU.OBJ
C:\USERS\USER\SOURCE\REPOS\PAINTER\PAINTER\DEBUG\MAIN.OBJ
^C:\USERS\USER\DESKTOP\תרגול בית 5\קבצים לתרגיל\CIRCLE.CPP|C:\USERS\USER\DESKTOP\תרגול בית 5\קבצים לתרגיל\MAIN.CPP|C:\USERS\USER\DESKTOP\תרגול בית 5\קבצים לתרגיל\MENU.CPP
C:\USERS\USER\SOURCE\REPOS\PAINTER\PAINTER\DEBUG\VC141.PDB
C:\USERS\USER\SOURCE\REPOS\PAINTER\PAINTER\DEBUG\VC141.IDB
C:\USERS\USER\SOURCE\REPOS\PAINTER\PAINTER\DEBUG\MENU.OBJ
C:\USERS\USER\SOURCE\REPOS\PAINTER\PAINTER\DEBUG\MAIN.OBJ
^C:\USERS\USER\DESKTOP\תרגול בית 5\קבצים לתרגיל\CIRCLE.CPP|C:\USERS\USER\DESKTOP\תרגול בית 5\קבצים לתרגיל\POLYGON.CPP
C:\USERS\USER\SOURCE\REPOS\PAINTER\PAINTER\DEBUG\VC141.PDB
C:\USERS\USER\SOURCE\REPOS\PAINTER\PAINTER\DEBUG\VC141.IDB
C:\USERS\USER\SOURCE\REPOS\PAINTER\PAINTER\DEBUG\POLYGON.OBJ
C:\USERS\USER\SOURCE\REPOS\PAINTER\PAINTER\DEBUG\CIRCLE.OBJ
^C:\USERS\USER\DESKTOP\תרגול בית 5\קבצים לתרגיל\ARROW.CPP|C:\USERS\USER\DESKTOP\תרגול בית 5\קבצים לתרגיל\MAIN.CPP|C:\USERS\USER\DESKTOP\תרגול בית 5\קבצים לתרגיל\MENU.CPP|C:\USERS\USER\DESKTOP\תרגול בית 5\קבצים לתרגיל\POLYGON.CPP|C:\USERS\USER\DESKTOP\תרגול בית 5\קבצים לתרגיל\RECTANGLE.CPP|C:\USERS\USER\DESKTOP\תרגול בית 5\קבצים לתרגיל\SHAPE.CPP|C:\USERS\USER\DESKTOP\תרגול בית 5\קבצים לתרגיל\TRIANGLE.CPP
C:\USERS\USER\SOURCE\REPOS\PAINTER\PAINTER\DEBUG\VC141.PDB
C:\USERS\USER\SOURCE\REPOS\PAINTER\PAINTER\DEBUG\VC141.IDB
C:\USERS\USER\SOURCE\REPOS\PAINTER\PAINTER\DEBUG\MAIN.OBJ
C:\USERS\USER\SOURCE\REPOS\PAINTER\PAINTER\DEBUG\TRIANGLE.OBJ
C:\USERS\USER\SOURCE\REPOS\PAINTER\PAINTER\DEBUG\SHAPE.OBJ
C:\USERS\USER\SOURCE\REPOS\PAINTER\PAINTER\DEBUG\RECTANGLE.OBJ
C:\USERS\USER\SOURCE\REPOS\PAINTER\PAINTER\DEBUG\POLYGON.OBJ
C:\USERS\USER\SOURCE\REPOS\PAINTER\PAINTER\DEBUG\MENU.OBJ
C:\USERS\USER\SOURCE\REPOS\PAINTER\PAINTER\DEBUG\ARROW.OBJ
^C:\USERS\USER\DESKTOP\תרגול בית 5\קבצים לתרגיל\ARROW.CPP|C:\USERS\USER\DESKTOP\תרגול בית 5\קבצים לתרגיל\MAIN.CPP|C:\USERS\USER\DESKTOP\תרגול בית 5\קבצים לתרגיל\MENU.CPP|C:\USERS\USER\DESKTOP\תרגול בית 5\קבצים לתרגיל\POLYGON.CPP|C:\USERS\USER\DESKTOP\תרגול בית 5\קבצים לתרגיל\RECTANGLE.CPP|C:\USERS\USER\DESKTOP\תרגול בית 5\קבצים לתרגיל\TRIANGLE.CPP
C:\USERS\USER\SOURCE\REPOS\PAINTER\PAINTER\DEBUG\VC141.PDB
C:\USERS\USER\SOURCE\REPOS\PAINTER\PAINTER\DEBUG\VC141.IDB
C:\USERS\USER\SOURCE\REPOS\PAINTER\PAINTER\DEBUG\MAIN.OBJ
C:\USERS\USER\SOURCE\REPOS\PAINTER\PAINTER\DEBUG\TRIANGLE.OBJ
C:\USERS\USER\SOURCE\REPOS\PAINTER\PAINTER\DEBUG\RECTANGLE.OBJ
C:\USERS\USER\SOURCE\REPOS\PAINTER\PAINTER\DEBUG\POLYGON.OBJ
C:\USERS\USER\SOURCE\REPOS\PAINTER\PAINTER\DEBUG\MENU.OBJ
C:\USERS\USER\SOURCE\REPOS\PAINTER\PAINTER\DEBUG\ARROW.OBJ
^C:\USERS\USER\DESKTOP\תרגול בית 5\קבצים לתרגיל\ARROW.CPP|C:\USERS\USER\DESKTOP\תרגול בית 5\קבצים לתרגיל\TRIANGLE.CPP
C:\USERS\USER\SOURCE\REPOS\PAINTER\PAINTER\DEBUG\VC141.PDB
C:\USERS\USER\SOURCE\REPOS\PAINTER\PAINTER\DEBUG\VC141.IDB
C:\USERS\USER\SOURCE\REPOS\PAINTER\PAINTER\DEBUG\TRIANGLE.OBJ
C:\USERS\USER\SOURCE\REPOS\PAINTER\PAINTER\DEBUG\ARROW.OBJ
^C:\USERS\USER\DESKTOP\תרגול בית 5\קבצים לתרגיל\ARROW.CPP|C:\USERS\USER\DESKTOP\תרגול בית 5\קבצים לתרגיל\CIRCLE.CPP|C:\USERS\USER\DESKTOP\תרגול בית 5\קבצים לתרגיל\MAIN.CPP|C:\USERS\USER\DESKTOP\תרגול בית 5\קבצים לתרגיל\MENU.CPP|C:\USERS\USER\DESKTOP\תרגול בית 5\קבצים לתרגיל\POLYGON.CPP|C:\USERS\USER\DESKTOP\תרגול בית 5\קבצים לתרגיל\RECTANGLE.CPP|C:\USERS\USER\DESKTOP\תרגול בית 5\קבצים לתרגיל\SHAPE.CPP|C:\USERS\USER\DESKTOP\תרגול בית 5\קבצים לתרגיל\TRIANGLE.CPP
C:\USERS\USER\SOURCE\REPOS\PAINTER\PAINTER\DEBUG\VC141.PDB
C:\USERS\USER\SOURCE\REPOS\PAINTER\PAINTER\DEBUG\VC141.IDB
C:\USERS\USER\SOURCE\REPOS\PAINTER\PAINTER\DEBUG\MAIN.OBJ
C:\USERS\USER\SOURCE\REPOS\PAINTER\PAINTER\DEBUG\TRIANGLE.OBJ
C:\USERS\USER\SOURCE\REPOS\PAINTER\PAINTER\DEBUG\SHAPE.OBJ
C:\USERS\USER\SOURCE\REPOS\PAINTER\PAINTER\DEBUG\RECTANGLE.OBJ
C:\USERS\USER\SOURCE\REPOS\PAINTER\PAINTER\DEBUG\POLYGON.OBJ
C:\USERS\USER\SOURCE\REPOS\PAINTER\PAINTER\DEBUG\MENU.OBJ
C:\USERS\USER\SOURCE\REPOS\PAINTER\PAINTER\DEBUG\CIRCLE.OBJ
C:\USERS\USER\SOURCE\REPOS\PAINTER\PAINTER\DEBUG\ARROW.OBJ
^C:\USERS\USER\DESKTOP\תרגול בית 5\קבצים לתרגיל\CIRCLE.CPP|C:\USERS\USER\DESKTOP\תרגול בית 5\קבצים לתרגיל\MENU.CPP
C:\USERS\USER\SOURCE\REPOS\PAINTER\PAINTER\DEBUG\VC141.PDB
C:\USERS\USER\SOURCE\REPOS\PAINTER\PAINTER\DEBUG\VC141.IDB
C:\USERS\USER\SOURCE\REPOS\PAINTER\PAINTER\DEBUG\MENU.OBJ
C:\USERS\USER\SOURCE\REPOS\PAINTER\PAINTER\DEBUG\CIRCLE.OBJ
^C:\USERS\USER\DESKTOP\תרגול בית 5\קבצים לתרגיל\MENU.CPP|C:\USERS\USER\DESKTOP\תרגול בית 5\קבצים לתרגיל\POINT.CPP
C:\USERS\USER\SOURCE\REPOS\PAINTER\PAINTER\DEBUG\VC141.PDB
C:\USERS\USER\SOURCE\REPOS\PAINTER\PAINTER\DEBUG\VC141.IDB
C:\USERS\USER\SOURCE\REPOS\PAINTER\PAINTER\DEBUG\POINT.OBJ
C:\USERS\USER\SOURCE\REPOS\PAINTER\PAINTER\DEBUG\MENU.OBJ
^C:\USERS\USER\DESKTOP\תרגול בית 5\קבצים לתרגיל\MAIN.CPP|C:\USERS\USER\DESKTOP\תרגול בית 5\קבצים לתרגיל\MENU.CPP|C:\USERS\USER\DESKTOP\תרגול בית 5\קבצים לתרגיל\POINT.CPP
C:\USERS\USER\SOURCE\REPOS\PAINTER\PAINTER\DEBUG\VC141.PDB
C:\USERS\USER\SOURCE\REPOS\PAINTER\PAINTER\DEBUG\VC141.IDB
C:\USERS\USER\SOURCE\REPOS\PAINTER\PAINTER\DEBUG\MAIN.OBJ
C:\USERS\USER\SOURCE\REPOS\PAINTER\PAINTER\DEBUG\POINT.OBJ
C:\USERS\USER\SOURCE\REPOS\PAINTER\PAINTER\DEBUG\MENU.OBJ
^C:\USERS\USER\DESKTOP\תרגול בית 5\קבצים לתרגיל\MAIN.CPP|C:\USERS\USER\DESKTOP\תרגול בית 5\קבצים לתרגיל\MENU.CPP
C:\USERS\USER\SOURCE\REPOS\PAINTER\PAINTER\DEBUG\VC141.PDB
C:\USERS\USER\SOURCE\REPOS\PAINTER\PAINTER\DEBUG\VC141.IDB
C:\USERS\USER\SOURCE\REPOS\PAINTER\PAINTER\DEBUG\MAIN.OBJ
C:\USERS\USER\SOURCE\REPOS\PAINTER\PAINTER\DEBUG\MENU.OBJ
^C:\USERS\USER\DESKTOP\תרגול בית 5\קבצים לתרגיל\MENU.CPP|C:\USERS\USER\DESKTOP\תרגול בית 5\קבצים לתרגיל\TRIANGLE.CPP
C:\USERS\USER\SOURCE\REPOS\PAINTER\PAINTER\DEBUG\VC141.PDB
C:\USERS\USER\SOURCE\REPOS\PAINTER\PAINTER\DEBUG\VC141.IDB
C:\USERS\USER\SOURCE\REPOS\PAINTER\PAINTER\DEBUG\TRIANGLE.OBJ
C:\USERS\USER\SOURCE\REPOS\PAINTER\PAINTER\DEBUG\MENU.OBJ
^C:\USERS\USER\DESKTOP\תרגול בית 5\קבצים לתרגיל\MENU.CPP|C:\USERS\USER\DESKTOP\תרגול בית 5\קבצים לתרגיל\POLYGON.CPP
C:\USERS\USER\SOURCE\REPOS\PAINTER\PAINTER\DEBUG\VC141.PDB
C:\USERS\USER\SOURCE\REPOS\PAINTER\PAINTER\DEBUG\VC141.IDB
C:\USERS\USER\SOURCE\REPOS\PAINTER\PAINTER\DEBUG\POLYGON.OBJ
C:\USERS\USER\SOURCE\REPOS\PAINTER\PAINTER\DEBUG\MENU.OBJ
^C:\USERS\USER\DESKTOP\תרגול בית 5\קבצים לתרגיל\MAIN.CPP|C:\USERS\USER\DESKTOP\תרגול בית 5\קבצים לתרגיל\TRIANGLE.CPP
C:\USERS\USER\SOURCE\REPOS\PAINTER\PAINTER\DEBUG\VC141.PDB
C:\USERS\USER\SOURCE\REPOS\PAINTER\PAINTER\DEBUG\VC141.IDB
C:\USERS\USER\SOURCE\REPOS\PAINTER\PAINTER\DEBUG\MAIN.OBJ
C:\USERS\USER\SOURCE\REPOS\PAINTER\PAINTER\DEBUG\TRIANGLE.OBJ
^C:\USERS\USER\SOURCE\REPOS\PAINTER\PAINTER\FILES\ARROW.CPP|C:\USERS\USER\SOURCE\REPOS\PAINTER\PAINTER\FILES\CIRCLE.CPP|C:\USERS\USER\SOURCE\REPOS\PAINTER\PAINTER\FILES\MAIN.CPP|C:\USERS\USER\SOURCE\REPOS\PAINTER\PAINTER\FILES\MENU.CPP|C:\USERS\USER\SOURCE\REPOS\PAINTER\PAINTER\FILES\POINT.CPP|C:\USERS\USER\SOURCE\REPOS\PAINTER\PAINTER\FILES\POLYGON.CPP|C:\USERS\USER\SOURCE\REPOS\PAINTER\PAINTER\FILES\RECTANGLE.CPP|C:\USERS\USER\SOURCE\REPOS\PAINTER\PAINTER\FILES\SHAPE.CPP|C:\USERS\USER\SOURCE\REPOS\PAINTER\PAINTER\FILES\TRIANGLE.CPP
C:\USERS\USER\SOURCE\REPOS\PAINTER\PAINTER\DEBUG\VC141.PDB
C:\USERS\USER\SOURCE\REPOS\PAINTER\PAINTER\DEBUG\VC141.IDB
C:\USERS\USER\SOURCE\REPOS\PAINTER\PAINTER\DEBUG\TRIANGLE.OBJ
C:\USERS\USER\SOURCE\REPOS\PAINTER\PAINTER\DEBUG\SHAPE.OBJ
C:\USERS\USER\SOURCE\REPOS\PAINTER\PAINTER\DEBUG\RECTANGLE.OBJ
C:\USERS\USER\SOURCE\REPOS\PAINTER\PAINTER\DEBUG\POLYGON.OBJ
C:\USERS\USER\SOURCE\REPOS\PAINTER\PAINTER\DEBUG\POINT.OBJ
C:\USERS\USER\SOURCE\REPOS\PAINTER\PAINTER\DEBUG\MENU.OBJ
C:\USERS\USER\SOURCE\REPOS\PAINTER\PAINTER\DEBUG\MAIN.OBJ
C:\USERS\USER\SOURCE\REPOS\PAINTER\PAINTER\DEBUG\CIRCLE.OBJ
C:\USERS\USER\SOURCE\REPOS\PAINTER\PAINTER\DEBUG\ARROW.OBJ
^C:\USERS\USER\SOURCE\REPOS\PAINTER\PAINTER\FILES\ARROW.CPP
C:\USERS\USER\SOURCE\REPOS\PAINTER\PAINTER\DEBUG\VC141.PDB
^C:\USERS\USER\SOURCE\REPOS\PAINTER\PAINTER\FILES\CIRCLE.CPP
C:\USERS\USER\SOURCE\REPOS\PAINTER\PAINTER\DEBUG\VC141.PDB
^C:\USERS\USER\SOURCE\REPOS\PAINTER\PAINTER\FILES\MAIN.CPP
C:\USERS\USER\SOURCE\REPOS\PAINTER\PAINTER\DEBUG\VC141.PDB
^C:\USERS\USER\SOURCE\REPOS\PAINTER\PAINTER\FILES\MENU.CPP
C:\USERS\USER\SOURCE\REPOS\PAINTER\PAINTER\DEBUG\VC141.PDB
^C:\USERS\USER\SOURCE\REPOS\PAINTER\PAINTER\FILES\POINT.CPP
C:\USERS\USER\SOURCE\REPOS\PAINTER\PAINTER\DEBUG\VC141.PDB
^C:\USERS\USER\SOURCE\REPOS\PAINTER\PAINTER\FILES\POLYGON.CPP
C:\USERS\USER\SOURCE\REPOS\PAINTER\PAINTER\DEBUG\VC141.PDB
^C:\USERS\USER\SOURCE\REPOS\PAINTER\PAINTER\FILES\RECTANGLE.CPP
C:\USERS\USER\SOURCE\REPOS\PAINTER\PAINTER\DEBUG\VC141.PDB
^C:\USERS\USER\SOURCE\REPOS\PAINTER\PAINTER\FILES\SHAPE.CPP
C:\USERS\USER\SOURCE\REPOS\PAINTER\PAINTER\DEBUG\VC141.PDB
^C:\USERS\USER\SOURCE\REPOS\PAINTER\PAINTER\FILES\TRIANGLE.CPP
C:\USERS\USER\SOURCE\REPOS\PAINTER\PAINTER\DEBUG\VC141.PDB
